TRACE.vcd
$var reg 	1 !	bus.reqDataMem  $end
$var reg 	32 "	bus.cmdDataMem  $end
$var reg 	32 #	bus.datainDataMem  $end
$var reg 	1 $	bus.ackDataMem  $end
$var reg 	1 %	bus.dataRdyDataMem  $end
$var reg 	32 &	bus.dataoutDataMem  $end
$var reg 	1 '	bus.waitDataMem  $end
$var reg 	1 (	bus.reqSensor  $end
$var reg 	32 )	bus.cmdSensor  $end
$var reg 	1 *	bus.ackSensor  $end
$var reg 	1 +	bus.dataRdySensor  $end
$var reg 	32 ,	bus.dataoutSensor  $end
$var reg 	1 -	bus.waitSensor  $end
$var reg 	1 .	bus.reqOutput  $end
$var reg 	32 /	bus.cmdOutput  $end
$var reg 	32 0	bus.datainOutput  $end
$var reg 	1 1	bus.ackOutput  $end
$var reg 	1 2	bus.dataRdyOutput  $end
$var reg 	32 3	bus.dataoutOutput  $end
$var reg 	1 4	bus.waitOutput  $end
$var reg 	1 5	bus.reqCPU  $end
$var reg 	32 6	bus.cmdCPU  $end
$var reg 	32 7	bus.dataoutCPU  $end
$var reg 	1 8	bus.ackCPU  $end
$var reg 	1 9	bus.dataRdyCPU  $end
$var reg 	32 :	bus.datainCPU  $end
$var reg 	1 ;	bus.waitCPU  $end
$var reg 	32 <	bus_toplevel.DM_datain  $end
$var reg 	1 =	bus_toplevel.DM_datainrdy  $end
$var reg 	32 >	bus_toplevel.DM_dataout  $end
$var reg 	32 ?	bus_toplevel.DM_cmdout  $end
$var reg 	1 @	bus_toplevel.DM_dataoutrdy  $end
$var reg 	32 A	bus_toplevel.SS_datain  $end
$var reg 	1 B	bus_toplevel.SS_datainrdy  $end
$var reg 	32 C	bus_toplevel.SS_dataout  $end
$var reg 	32 D	bus_toplevel.SS_cmdout  $end
$var reg 	1 E	bus_toplevel.SS_dataoutrdy  $end
$var reg 	32 F	bus_toplevel.OP_datain  $end
$var reg 	1 G	bus_toplevel.OP_datainrdy  $end
$var reg 	32 H	bus_toplevel.OP_dataout  $end
$var reg 	32 I	bus_toplevel.OP_cmdout  $end
$var reg 	1 J	bus_toplevel.OP_dataoutrdy  $end
$var reg 	12 K	DataMem.address  $end
$var reg 	1 L	DataMem.wr  $end
$var reg 	1 M	DataMem.rd  $end
$var reg 	32 N	DataMem.idata  $end
$var reg 	32 O	Sensor.odata  $end
$var reg 	10 P	Sensor.c  $end
$var reg 	32 Q	Output.FilterOut  $end
$var reg 	10 R	Output.count  $end
$enddefinitions $end 
$enddefinitions $end 
#1
b0 !
b00000000000000000000000000000000 "
b00000000000000000000000000000000 #
b0 $
b0 %
b00000000000000000000000000000000 &
b0 '
b0 (
b00000000000000000000000000000000 )
b0 *
b0 +
b00000000000000000000000000000000 ,
b0 -
b0 .
b00000000000000000000000000000000 /
b00000000000000000000000000000000 0
b0 1
b0 2
b00000000000000000000000000000000 3
b0 4
b0 5
b00000000000000000000000000000000 6
b00000000000000000000000000000000 7
b0 8
b0 9
b00000000000000000000000000000000 :
b0 ;
b00000000000000000000000000000000 <
b0 =
b00000000000000000000000000000000 >
b00000000000000000000000000000000 ?
b0 @
b11111111111111111111111100110110 A
b0 B
b00000000000000000000000000000000 C
b00000000000000000000000000000000 D
b0 E
b00000000000000000000000100100011 F
b0 G
b00000000000000000000000000000000 H
b00000000000000000000000000000000 I
b0 J
b000000000000 K
b0 L
b1 M
b00000000000000000000000000000000 N
b11111111111111111111111100110110 O
b0000000000 P
b00000000000000000000000000000000 Q
b0000000000 R
#2
b1 !
b00000000000000000000000010100000 "
b00000000000000000000000000000000 #
b0 $
b0 %
b00000000000000000000000000000000 &
b0 '
b1 (
b00000000000000000000000010100000 )
b0 *
b0 +
b00000000000000000000000000000000 ,
b0 -
b1 .
b00000000000000000000000010100000 /
b00000000000000000000000000000000 0
b0 1
b0 2
b00000000000000000000000000000000 3
b0 4
b1 5
b00000000000000000000000010100000 6
b00000000000000000000000000000000 7
b0 8
b0 9
b00000000000000000000000000000000 :
b0 ;
b00000000000000000000000000000000 <
b0 =
b00000000000000000000000000000000 >
b00000000000000000000000000000000 ?
b0 @
b11111111111111111111111100110110 A
b0 B
b00000000000000000000000000000000 C
b00000000000000000000000000000000 D
b0 E
b00000000000000000000000100100011 F
b0 G
b00000000000000000000000000000000 H
b00000000000000000000000000000000 I
b0 J
b000000000000 K
b0 L
b1 M
b00000000000000000000000000000000 N
b11111111111111111111111100110110 O
b0000000000 P
b00000000000000000000000000000000 Q
b0000000000 R
#3
b1 !
b00000000000000000000000010100000 "
b00000000000000000000000000000000 #
b0 $
b0 %
b00000000000000000000000000000000 &
b0 '
b1 (
b00000000000000000000000010100000 )
b0 *
b0 +
b00000000000000000000000000000000 ,
b0 -
b1 .
b00000000000000000000000010100000 /
b00000000000000000000000000000000 0
b0 1
b0 2
b00000000000000000000000000000000 3
b0 4
b1 5
b00000000000000000000000010100000 6
b00000000000000000000000000000000 7
b0 8
b0 9
b00000000000000000000000000000000 :
b0 ;
b00000000000000000000000000000000 <
b0 =
b00000000000000000000000000000000 >
b00000000000000000000000000000000 ?
b0 @
b11111111111111111111111100110110 A
b0 B
b00000000000000000000000000000000 C
b00000000000000000000000000000000 D
b0 E
b00000000000000000000000100100011 F
b0 G
b00000000000000000000000000000000 H
b00000000000000000000000000000000 I
b0 J
b000000000000 K
b0 L
b1 M
b00000000000000000000000000000000 N
b11111111111111111111111100110110 O
b0000000001 P
b00000000000000000000000000000000 Q
b0000000000 R
#4
b1 !
b00000000000000000000000010100000 "
b00000000000000000000000000000000 #
b0 $
b0 %
b00000000000000000000000000000000 &
b0 '
b1 (
b00000000000000000000000010100000 )
b0 *
b0 +
b00000000000000000000000000000000 ,
b0 -
b1 .
b00000000000000000000000010100000 /
b00000000000000000000000000000000 0
b0 1
b0 2
b00000000000000000000000000000000 3
b0 4
b1 5
b00000000000000000000000010100000 6
b00000000000000000000000000000000 7
b0 8
b0 9
b00000000000000000000000000000000 :
b0 ;
b00000000000000000000000000000000 <
b0 =
b00000000000000000000000000000000 >
b00000000000000000000000000000000 ?
b0 @
b11111111111111111111111100110110 A
b0 B
b00000000000000000000000000000000 C
b00000000000000000000000000000000 D
b0 E
b00000000000000000000000100100011 F
b0 G
b00000000000000000000000000000000 H
b00000000000000000000000000000000 I
b0 J
b000000000000 K
b0 L
b1 M
b00000000000000000000000000000000 N
b11111111111111111111111100110110 O
b0000000010 P
b00000000000000000000000000000000 Q
b0000000000 R
#5
b1 !
b00000000000000000000000010100000 "
b00000000000000000000000000000000 #
b0 $
b0 %
b00000000000000000000000000000000 &
b0 '
b1 (
b00000000000000000000000010100000 )
b0 *
b0 +
b00000000000000000000000000000000 ,
b0 -
b1 .
b00000000000000000000000010100000 /
b00000000000000000000000000000000 0
b0 1
b0 2
b00000000000000000000000000000000 3
b0 4
b1 5
b00000000000000000000000010100000 6
b00000000000000000000000000000000 7
b0 8
b0 9
b00000000000000000000000000000000 :
b0 ;
b00000000000000000000000000000000 <
b0 =
b00000000000000000000000000000000 >
b00000000000000000000000000000000 ?
b0 @
b11111111111111111111111100110110 A
b0 B
b00000000000000000000000000000000 C
b00000000000000000000000000000000 D
b0 E
b00000000000000000000000100100011 F
b0 G
b00000000000000000000000000000000 H
b00000000000000000000000000000000 I
b0 J
b000000000000 K
b0 L
b1 M
b00000000000000000000000000000000 N
b11111111111111111111111100110110 O
b0000000011 P
b00000000000000000000000000000000 Q
b0000000000 R
#6
b1 !
b00000000000000000000000010100000 "
b00000000000000000000000000000000 #
b0 $
b0 %
b00000000000000000000000000000000 &
b0 '
b1 (
b00000000000000000000000010100000 )
b0 *
b0 +
b00000000000000000000000000000000 ,
b0 -
b1 .
b00000000000000000000000010100000 /
b00000000000000000000000000000000 0
b0 1
b0 2
b00000000000000000000000000000000 3
b0 4
b1 5
b00000000000000000000000010100000 6
b00000000000000000000000000000000 7
b0 8
b0 9
b00000000000000000000000000000000 :
b0 ;
b00000000000000000000000000000000 <
b0 =
b00000000000000000000000000000000 >
b00000000000000000000000000000000 ?
b0 @
b11111111111111111111111100110110 A
b0 B
b00000000000000000000000000000000 C
b00000000000000000000000000000000 D
b0 E
b00000000000000000000000100100011 F
b0 G
b00000000000000000000000000000000 H
b00000000000000000000000000000000 I
b0 J
b000000000000 K
b0 L
b1 M
b00000000000000000000000000000000 N
b11111111111111111111111100110110 O
b0000000100 P
b00000000000000000000000000000000 Q
b0000000000 R
#7
b1 !
b00000000000000000000000010100000 "
b11111111111111111111111111100001 #
b0 $
b0 %
b00000000000000000000000000000000 &
b0 '
b1 (
b00000000000000000000000010100000 )
b0 *
b0 +
b00000000000000000000000000000000 ,
b0 -
b1 .
b00000000000000000000000010100000 /
b11111111111111111111111111100001 0
b0 1
b0 2
b00000000000000000000000000000000 3
b0 4
b1 5
b00000000000000000000000010100000 6
b11111111111111111111111111100001 7
b0 8
b0 9
b00000000000000000000000000000000 :
b0 ;
b00000000000000000000000000000000 <
b0 =
b00000000000000000000000000000000 >
b00000000000000000000000000000000 ?
b0 @
b11111111111111111111111100110110 A
b0 B
b00000000000000000000000000000000 C
b00000000000000000000000000000000 D
b0 E
b00000000000000000000000100100011 F
b0 G
b00000000000000000000000000000000 H
b00000000000000000000000000000000 I
b0 J
b000000000000 K
b0 L
b1 M
b00000000000000000000000000000000 N
b11111111111111111111111100110110 O
b0000000101 P
b00000000000000000000000000000000 Q
b0000000000 R
#8
b1 !
b00000000000000000000000010100000 "
b11111111111111111111111111100001 #
b0 $
b0 %
b00000000000000000000000000000000 &
b0 '
b1 (
b00000000000000000000000010100000 )
b0 *
b0 +
b00000000000000000000000000000000 ,
b0 -
b1 .
b00000000000000000000000010100000 /
b11111111111111111111111111100001 0
b0 1
b0 2
b00000000000000000000000000000000 3
b0 4
b1 5
b00000000000000000000000010100000 6
b11111111111111111111111111100001 7
b0 8
b0 9
b00000000000000000000000000000000 :
b0 ;
b00000000000000000000000000000000 <
b0 =
b00000000000000000000000000000000 >
b00000000000000000000000000000000 ?
b0 @
b11111111111111111111111100110110 A
b0 B
b00000000000000000000000000000000 C
b00000000000000000000000000000000 D
b0 E
b00000000000000000000000100100011 F
b0 G
b00000000000000000000000000000000 H
b00000000000000000000000000000000 I
b0 J
b000000000000 K
b0 L
b1 M
b00000000000000000000000000000000 N
b11111111111111111111111100110110 O
b0000000110 P
b00000000000000000000000000000000 Q
b0000000000 R
#9
b1 !
b00000000000000000000000010100000 "
b00000000000000000000000000000000 #
b0 $
b0 %
b00000000000000000000000000000000 &
b0 '
b1 (
b00000000000000000000000010100000 )
b0 *
b0 +
b00000000000000000000000000000000 ,
b0 -
b1 .
b00000000000000000000000010100000 /
b00000000000000000000000000000000 0
b0 1
b0 2
b00000000000000000000000000000000 3
b0 4
b1 5
b00000000000000000000000010100000 6
b00000000000000000000000000000000 7
b0 8
b0 9
b00000000000000000000000000000000 :
b0 ;
b00000000000000000000000000000000 <
b0 =
b00000000000000000000000000000000 >
b00000000000000000000000000000000 ?
b0 @
b11111111111111111111111100110110 A
b0 B
b00000000000000000000000000000000 C
b00000000000000000000000000000000 D
b0 E
b00000000000000000000000100100011 F
b0 G
b00000000000000000000000000000000 H
b00000000000000000000000000000000 I
b0 J
b000000000000 K
b0 L
b1 M
b00000000000000000000000000000000 N
b11111111111111111111111100110110 O
b0000000111 P
b00000000000000000000000000000000 Q
b0000000000 R
#10
b1 !
b00000000000000000000000010100000 "
b00000000000000000000000000000000 #
b0 $
b0 %
b00000000000000000000000000000000 &
b0 '
b1 (
b00000000000000000000000010100000 )
b0 *
b0 +
b00000000000000000000000000000000 ,
b0 -
b1 .
b00000000000000000000000010100000 /
b00000000000000000000000000000000 0
b0 1
b0 2
b00000000000000000000000000000000 3
b0 4
b1 5
b00000000000000000000000010100000 6
b00000000000000000000000000000000 7
b0 8
b0 9
b00000000000000000000000000000000 :
b0 ;
b00000000000000000000000000000000 <
b0 =
b00000000000000000000000000000000 >
b00000000000000000000000000000000 ?
b0 @
b11111111111111111111111100110110 A
b0 B
b00000000000000000000000000000000 C
b00000000000000000000000000000000 D
b0 E
b00000000000000000000000100100011 F
b0 G
b00000000000000000000000000000000 H
b00000000000000000000000000000000 I
b0 J
b000000000000 K
b0 L
b1 M
b00000000000000000000000000000000 N
b11111111111111111111111100110110 O
b0000001000 P
b00000000000000000000000000000000 Q
b0000000000 R
#11
b1 !
b00000000000000000000000010100000 "
b00000000000000000000000000000000 #
b0 $
b0 %
b00000000000000000000000000000000 &
b0 '
b1 (
b00000000000000000000000010100000 )
b0 *
b0 +
b00000000000000000000000000000000 ,
b0 -
b1 .
b00000000000000000000000010100000 /
b00000000000000000000000000000000 0
b0 1
b0 2
b00000000000000000000000000000000 3
b0 4
b1 5
b00000000000000000000000010100000 6
b00000000000000000000000000000000 7
b0 8
b0 9
b00000000000000000000000000000000 :
b0 ;
b00000000000000000000000000000000 <
b0 =
b00000000000000000000000000000000 >
b00000000000000000000000000000000 ?
b0 @
b11111111111111111111111100110110 A
b0 B
b00000000000000000000000000000000 C
b00000000000000000000000000000000 D
b0 E
b00000000000000000000000100100011 F
b0 G
b00000000000000000000000000000000 H
b00000000000000000000000000000000 I
b0 J
b000000000000 K
b0 L
b1 M
b00000000000000000000000000000000 N
b11111111111111111111111100110110 O
b0000001001 P
b00000000000000000000000000000000 Q
b0000000000 R
#12
b1 !
b01001000000000000000000011111010 "
b00000000000000000000000011111010 #
b0 $
b0 %
b00000000000000000000000000000000 &
b0 '
b1 (
b01001000000000000000000011111010 )
b0 *
b0 +
b00000000000000000000000000000000 ,
b0 -
b1 .
b01001000000000000000000011111010 /
b00000000000000000000000011111010 0
b0 1
b0 2
b00000000000000000000000000000000 3
b0 4
b1 5
b01001000000000000000000011111010 6
b00000000000000000000000011111010 7
b0 8
b0 9
b00000000000000000000000000000000 :
b0 ;
b00000000000000000000000000000000 <
b0 =
b00000000000000000000000000000000 >
b00000000000000000000000000000000 ?
b0 @
b11111111111111111111111100111001 A
b0 B
b00000000000000000000000000000000 C
b00000000000000000000000000000000 D
b0 E
b00000000000000000000000100100011 F
b0 G
b00000000000000000000000000000000 H
b00000000000000000000000000000000 I
b0 J
b000000000000 K
b0 L
b1 M
b00000000000000000000000000000000 N
b11111111111111111111111100111001 O
b0000000000 P
b00000000000000000000000000000000 Q
b0000000000 R
#13
b1 !
b00000000000000000000000010100000 "
b00000000000000000000000000000001 #
b0 $
b0 %
b00000000000000000000000000000000 &
b0 '
b1 (
b00000000000000000000000010100000 )
b0 *
b0 +
b00000000000000000000000000000000 ,
b0 -
b1 .
b00000000000000000000000010100000 /
b00000000000000000000000000000001 0
b0 1
b0 2
b00000000000000000000000000000000 3
b0 4
b1 5
b00000000000000000000000010100000 6
b00000000000000000000000000000001 7
b0 8
b0 9
b00000000000000000000000000000000 :
b0 ;
b00000000000000000000000000000000 <
b0 =
b00000000000000000000000000000000 >
b00000000000000000000000000000000 ?
b0 @
b11111111111111111111111100111001 A
b0 B
b00000000000000000000000000000000 C
b00000000000000000000000000000000 D
b0 E
b00000000000000000000000100100011 F
b0 G
b00000000000000000000000000000000 H
b00000000000000000000000000000000 I
b0 J
b000000000000 K
b0 L
b1 M
b00000000000000000000000000000000 N
b11111111111111111111111100111001 O
b0000000001 P
b00000000000000000000000000000000 Q
b0000000000 R
#14
b1 !
b00000000000000000000000010100000 "
b11111111111111111111111100000111 #
b0 $
b0 %
b00000000000000000000000000000000 &
b0 '
b1 (
b00000000000000000000000010100000 )
b0 *
b0 +
b00000000000000000000000000000000 ,
b0 -
b1 .
b00000000000000000000000010100000 /
b11111111111111111111111100000111 0
b0 1
b0 2
b00000000000000000000000000000000 3
b0 4
b1 5
b00000000000000000000000010100000 6
b11111111111111111111111100000111 7
b0 8
b0 9
b00000000000000000000000000000000 :
b0 ;
b00000000000000000000000000000000 <
b0 =
b00000000000000000000000000000000 >
b00000000000000000000000000000000 ?
b0 @
b11111111111111111111111100111001 A
b0 B
b00000000000000000000000000000000 C
b00000000000000000000000000000000 D
b0 E
b00000000000000000000000100100011 F
b0 G
b00000000000000000000000000000000 H
b00000000000000000000000000000000 I
b0 J
b000000000000 K
b0 L
b1 M
b00000000000000000000000000000000 N
b11111111111111111111111100111001 O
b0000000010 P
b00000000000000000000000000000000 Q
b0000000000 R
#15
b1 !
b00000000000000000000000010100000 "
b00000000000000000000000000000000 #
b0 $
b0 %
b00000000000000000000000000000000 &
b0 '
b1 (
b00000000000000000000000010100000 )
b0 *
b0 +
b00000000000000000000000000000000 ,
b0 -
b1 .
b00000000000000000000000010100000 /
b00000000000000000000000000000000 0
b0 1
b0 2
b00000000000000000000000000000000 3
b0 4
b1 5
b00000000000000000000000010100000 6
b00000000000000000000000000000000 7
b0 8
b0 9
b00000000000000000000000000000000 :
b0 ;
b00000000000000000000000000000000 <
b0 =
b00000000000000000000000000000000 >
b00000000000000000000000000000000 ?
b0 @
b11111111111111111111111100111001 A
b0 B
b00000000000000000000000000000000 C
b00000000000000000000000000000000 D
b0 E
b00000000000000000000000100100011 F
b0 G
b00000000000000000000000000000000 H
b00000000000000000000000000000000 I
b0 J
b000000000000 K
b0 L
b1 M
b00000000000000000000000000000000 N
b11111111111111111111111100111001 O
b0000000011 P
b00000000000000000000000000000000 Q
b0000000000 R
#16
b1 !
b00000000000000000000000010100000 "
b00000000000000000000000000000001 #
b0 $
b0 %
b00000000000000000000000000000000 &
b0 '
b1 (
b00000000000000000000000010100000 )
b0 *
b0 +
b00000000000000000000000000000000 ,
b0 -
b1 .
b00000000000000000000000010100000 /
b00000000000000000000000000000001 0
b0 1
b0 2
b00000000000000000000000000000000 3
b0 4
b1 5
b00000000000000000000000010100000 6
b00000000000000000000000000000001 7
b0 8
b0 9
b00000000000000000000000000000000 :
b0 ;
b00000000000000000000000000000000 <
b0 =
b00000000000000000000000000000000 >
b00000000000000000000000000000000 ?
b0 @
b11111111111111111111111100111001 A
b0 B
b00000000000000000000000000000000 C
b00000000000000000000000000000000 D
b0 E
b00000000000000000000000100100011 F
b0 G
b00000000000000000000000000000000 H
b00000000000000000000000000000000 I
b0 J
b000000000000 K
b0 L
b1 M
b00000000000000000000000000000000 N
b11111111111111111111111100111001 O
b0000000100 P
b00000000000000000000000000000000 Q
b0000000000 R
#17
b1 !
b00000000000000000000000010100000 "
b00000000000000000000000000000000 #
b0 $
b0 %
b00000000000000000000000000000000 &
b0 '
b1 (
b00000000000000000000000010100000 )
b0 *
b0 +
b00000000000000000000000000000000 ,
b0 -
b1 .
b00000000000000000000000010100000 /
b00000000000000000000000000000000 0
b0 1
b0 2
b00000000000000000000000000000000 3
b0 4
b1 5
b00000000000000000000000010100000 6
b00000000000000000000000000000000 7
b0 8
b0 9
b00000000000000000000000000000000 :
b0 ;
b00000000000000000000000000000000 <
b0 =
b00000000000000000000000000000000 >
b00000000000000000000000000000000 ?
b0 @
b11111111111111111111111100111001 A
b0 B
b00000000000000000000000000000000 C
b00000000000000000000000000000000 D
b0 E
b00000000000000000000000100100011 F
b0 G
b00000000000000000000000000000000 H
b00000000000000000000000000000000 I
b0 J
b000000000000 K
b0 L
b1 M
b00000000000000000000000000000000 N
b11111111111111111111111100111001 O
b0000000101 P
b00000000000000000000000000000000 Q
b0000000000 R
#18
b1 !
b00000000000000000000000010100000 "
b00000000000000000000000000000001 #
b0 $
b0 %
b00000000000000000000000000000000 &
b0 '
b1 (
b00000000000000000000000010100000 )
b0 *
b0 +
b00000000000000000000000000000000 ,
b0 -
b1 .
b00000000000000000000000010100000 /
b00000000000000000000000000000001 0
b0 1
b0 2
b00000000000000000000000000000000 3
b0 4
b1 5
b00000000000000000000000010100000 6
b00000000000000000000000000000001 7
b0 8
b0 9
b00000000000000000000000000000000 :
b0 ;
b00000000000000000000000000000000 <
b0 =
b00000000000000000000000000000000 >
b00000000000000000000000000000000 ?
b0 @
b11111111111111111111111100111001 A
b0 B
b00000000000000000000000000000000 C
b00000000000000000000000000000000 D
b0 E
b00000000000000000000000100100011 F
b0 G
b00000000000000000000000000000000 H
b00000000000000000000000000000000 I
b0 J
b000000000000 K
b0 L
b1 M
b00000000000000000000000000000000 N
b11111111111111111111111100111001 O
b0000000110 P
b00000000000000000000000000000000 Q
b0000000000 R
#19
b1 !
b00000000000000000000000010100000 "
b11111111111111111111111111100010 #
b0 $
b0 %
b00000000000000000000000000000000 &
b0 '
b1 (
b00000000000000000000000010100000 )
b0 *
b0 +
b00000000000000000000000000000000 ,
b0 -
b1 .
b00000000000000000000000010100000 /
b11111111111111111111111111100010 0
b0 1
b0 2
b00000000000000000000000000000000 3
b0 4
b1 5
b00000000000000000000000010100000 6
b11111111111111111111111111100010 7
b0 8
b0 9
b00000000000000000000000000000000 :
b0 ;
b00000000000000000000000000000000 <
b0 =
b00000000000000000000000000000000 >
b00000000000000000000000000000000 ?
b0 @
b11111111111111111111111100111001 A
b0 B
b00000000000000000000000000000000 C
b00000000000000000000000000000000 D
b0 E
b00000000000000000000000100100011 F
b0 G
b00000000000000000000000000000000 H
b00000000000000000000000000000000 I
b0 J
b000000000000 K
b0 L
b1 M
b00000000000000000000000000000000 N
b11111111111111111111111100111001 O
b0000000111 P
b00000000000000000000000000000000 Q
b0000000000 R
#20
b1 !
b00000000000000000000000010100000 "
b11111111111111111111111111100010 #
b0 $
b0 %
b00000000000000000000000000000000 &
b0 '
b1 (
b00000000000000000000000010100000 )
b0 *
b0 +
b00000000000000000000000000000000 ,
b0 -
b1 .
b00000000000000000000000010100000 /
b11111111111111111111111111100010 0
b0 1
b0 2
b00000000000000000000000000000000 3
b0 4
b1 5
b00000000000000000000000010100000 6
b11111111111111111111111111100010 7
b0 8
b0 9
b00000000000000000000000000000000 :
b0 ;
b00000000000000000000000000000000 <
b0 =
b00000000000000000000000000000000 >
b00000000000000000000000000000000 ?
b0 @
b11111111111111111111111100111001 A
b0 B
b00000000000000000000000000000000 C
b00000000000000000000000000000000 D
b0 E
b00000000000000000000000100100011 F
b0 G
b00000000000000000000000000000000 H
b00000000000000000000000000000000 I
b0 J
b000000000000 K
b0 L
b1 M
b00000000000000000000000000000000 N
b11111111111111111111111100111001 O
b0000001000 P
b00000000000000000000000000000000 Q
b0000000000 R
